%YAML 1.1
%TAG !u! tag:unity3d.com,2011:
--- !u!114 &11400000
MonoBehaviour:
  m_ObjectHideFlags: 0
  m_CorrespondingSourceObject: {fileID: 0}
  m_PrefabInstance: {fileID: 0}
  m_PrefabAsset: {fileID: 0}
  m_GameObject: {fileID: 0}
  m_Enabled: 1
  m_EditorHideFlags: 0
  m_Script: {fileID: 11500000, guid: 593ee795373233f43bfbf427233ad20c, type: 3}
  m_Name: 2
  m_EditorClassIdentifier: 
  message: Can I help you?
  nextMessages:
  - conditions:
    - {fileID: 11400000, guid: fa645755d20aa0749902d70a97092626, type: 2}
    message: {fileID: 11400000, guid: fb94ad4041b514646b42d8a17dbf57f9, type: 2}
  - conditions:
    - {fileID: 11400000, guid: d324afb32a740a34584657c8f0767de1, type: 2}
    - {fileID: 11400000, guid: cf7f9a4ce7224c5459b19553d65ca741, type: 2}
    message: {fileID: 11400000, guid: 9da3cf2fbb3896b4fa3ae46146cfe0a7, type: 2}
  - conditions:
    - {fileID: 11400000, guid: d324afb32a740a34584657c8f0767de1, type: 2}
    message: {fileID: 11400000, guid: 4fcc3b6bb0b3ed540a1419456a1c86c4, type: 2}
  choices:
  - conditions: []
    choice: What are you reading?
  - conditions: []
    choice: Just wanted to sit next to you...
  itemsLost: []
  itemsObtained: []
  money: 0
  affinity: 0
