%YAML 1.1
%TAG !u! tag:unity3d.com,2011:
--- !u!114 &11400000
MonoBehaviour:
  m_ObjectHideFlags: 0
  m_CorrespondingSourceObject: {fileID: 0}
  m_PrefabInstance: {fileID: 0}
  m_PrefabAsset: {fileID: 0}
  m_GameObject: {fileID: 0}
  m_Enabled: 1
  m_EditorHideFlags: 0
  m_Script: {fileID: 11500000, guid: d52a1a66c4bc7668595702909f7bb183, type: 3}
  m_Name: Body-Skinny
  m_EditorClassIdentifier: 
  beauty: 0
  sprite: {fileID: 21300000, guid: cfbb82c148ee6f54ab2a01a678b5ab3c, type: 3}
