%YAML 1.1
%TAG !u! tag:unity3d.com,2011:
--- !u!114 &11400000
MonoBehaviour:
  m_ObjectHideFlags: 0
  m_CorrespondingSourceObject: {fileID: 0}
  m_PrefabInstance: {fileID: 0}
  m_PrefabAsset: {fileID: 0}
  m_GameObject: {fileID: 0}
  m_Enabled: 1
  m_EditorHideFlags: 0
  m_Script: {fileID: 11500000, guid: ad72497745173ee3a8cf9446da54f8c1, type: 3}
  m_Name: Phone Contact
  m_EditorClassIdentifier: 
  probability: 20
  message: '{target} is calling you.'
  choices:
  - Answer
  - Ignore
  cooldown: 5
  minAffinity: 40
  affinityReductionOnRefusal: 0
  setting: 0
