%YAML 1.1
%TAG !u! tag:unity3d.com,2011:
--- !u!114 &11400000
MonoBehaviour:
  m_ObjectHideFlags: 0
  m_CorrespondingSourceObject: {fileID: 0}
  m_PrefabInstance: {fileID: 0}
  m_PrefabAsset: {fileID: 0}
  m_GameObject: {fileID: 0}
  m_Enabled: 1
  m_EditorHideFlags: 0
  m_Script: {fileID: 11500000, guid: 593ee795373233f43bfbf427233ad20c, type: 3}
  m_Name: 4
  m_EditorClassIdentifier: 
  message: But not to worry, he'll probably get tired before I do! Haha!
  nextMessages:
  - conditions:
    - {fileID: 11400000, guid: fa645755d20aa0749902d70a97092626, type: 2}
    - {fileID: 11400000, guid: cffb6baee6473bc48bb4b205fa97be58, type: 2}
    message: {fileID: 11400000, guid: 252902e3ccd2c6b479db17c2e4583590, type: 2}
  - conditions:
    - {fileID: 11400000, guid: fa645755d20aa0749902d70a97092626, type: 2}
    message: {fileID: 11400000, guid: 6e40f59ce79abb34fa9fd77f345fd495, type: 2}
  - conditions:
    - {fileID: 11400000, guid: d324afb32a740a34584657c8f0767de1, type: 2}
    message: {fileID: 11400000, guid: a6c05096b6323574f90f24b1d39255a1, type: 2}
  choices:
  - conditions: []
    choice: <i>Run after the dog</i>
  - conditions: []
    choice: Good luck then!
  itemsLost: []
  itemsObtained: []
  money: 0
  affinity: 0
