%YAML 1.1
%TAG !u! tag:unity3d.com,2011:
--- !u!114 &11400000
MonoBehaviour:
  m_ObjectHideFlags: 0
  m_CorrespondingSourceObject: {fileID: 0}
  m_PrefabInstance: {fileID: 0}
  m_PrefabAsset: {fileID: 0}
  m_GameObject: {fileID: 0}
  m_Enabled: 1
  m_EditorHideFlags: 0
  m_Script: {fileID: 11500000, guid: 593ee795373233f43bfbf427233ad20c, type: 3}
  m_Name: 5
  m_EditorClassIdentifier: 
  message: <i>After some running around, you manage to catch the dog.</i>
  nextMessages:
  - conditions: []
    message: {fileID: 11400000, guid: c4a18bea99b0105428b4b6ff31bc5a2e, type: 2}
  choices: []
  itemsLost: []
  itemsObtained: []
  money: 0
  affinity: 0
