%YAML 1.1
%TAG !u! tag:unity3d.com,2011:
--- !u!114 &11400000
MonoBehaviour:
  m_ObjectHideFlags: 0
  m_CorrespondingSourceObject: {fileID: 0}
  m_PrefabInstance: {fileID: 0}
  m_PrefabAsset: {fileID: 0}
  m_GameObject: {fileID: 0}
  m_Enabled: 1
  m_EditorHideFlags: 0
  m_Script: {fileID: 11500000, guid: 593ee795373233f43bfbf427233ad20c, type: 3}
  m_Name: FC2-START
  m_EditorClassIdentifier: 
  message: '<i>You see a woman standing, leaning over the bar.

    She looks bored.</i>'
  nextMessages:
  - conditions:
    - {fileID: 11400000, guid: fa645755d20aa0749902d70a97092626, type: 2}
    - {fileID: 11400000, guid: 5faf109ddf2d9d2409a04928719faa01, type: 2}
    message: {fileID: 11400000, guid: 76cd6331cc461a9cc85015042120fba5, type: 2}
  - conditions:
    - {fileID: 11400000, guid: fa645755d20aa0749902d70a97092626, type: 2}
    message: {fileID: 11400000, guid: 82cc864ec0588a18992b86ec8113167a, type: 2}
  - conditions:
    - {fileID: 11400000, guid: d324afb32a740a34584657c8f0767de1, type: 2}
    message: {fileID: 11400000, guid: b4d5d4d216f60a5fa89e559b609dea9e, type: 2}
  choices:
  - conditions: []
    choice: Here, 10$. Drink until you find me attractive, I'll be waiting.
  - conditions: []
    choice: I forgot my number. Can I have yours?
  itemsLost: []
  itemsObtained: []
  money: 0
  affinity: 0
