%YAML 1.1
%TAG !u! tag:unity3d.com,2011:
--- !u!114 &11400000
MonoBehaviour:
  m_ObjectHideFlags: 0
  m_CorrespondingSourceObject: {fileID: 0}
  m_PrefabInstance: {fileID: 0}
  m_PrefabAsset: {fileID: 0}
  m_GameObject: {fileID: 0}
  m_Enabled: 1
  m_EditorHideFlags: 0
  m_Script: {fileID: 11500000, guid: 4d626dbe2217a9c409a6c6e9b8cac1f1, type: 3}
  m_Name: Go to the club
  m_EditorClassIdentifier: 
  apCost: 2
  moneyCost: 10
  needsVehicle: 1
  newEncountersPercentage: 90
  setting: 1
