%YAML 1.1
%TAG !u! tag:unity3d.com,2011:
--- !u!114 &11400000
MonoBehaviour:
  m_ObjectHideFlags: 0
  m_CorrespondingSourceObject: {fileID: 0}
  m_PrefabInstance: {fileID: 0}
  m_PrefabAsset: {fileID: 0}
  m_GameObject: {fileID: 0}
  m_Enabled: 1
  m_EditorHideFlags: 0
  m_Script: {fileID: 11500000, guid: d6968aea184c4f540b3ddbdf880f16b2, type: 3}
  m_Name: Go to school
  m_EditorClassIdentifier: 
  apCost: 5
  moneyCost: 3
  needsVehicle: 0
  characteristic: 2
  quantity: 3
