%YAML 1.1
%TAG !u! tag:unity3d.com,2011:
--- !u!114 &11400000
MonoBehaviour:
  m_ObjectHideFlags: 0
  m_CorrespondingSourceObject: {fileID: 0}
  m_PrefabInstance: {fileID: 0}
  m_PrefabAsset: {fileID: 0}
  m_GameObject: {fileID: 0}
  m_Enabled: 1
  m_EditorHideFlags: 0
  m_Script: {fileID: 11500000, guid: e4db23c54f8c5e14d9d36c2919511205, type: 3}
  m_Name: Lottery
  m_EditorClassIdentifier: 
  probability: 1
  message: Your kind neighbor gave you a lottery ticket, and guess what, you won!
    You gain 200$.
  choices: []
  cooldown: 20
  amount: 200
