%YAML 1.1
%TAG !u! tag:unity3d.com,2011:
--- !u!114 &11400000
MonoBehaviour:
  m_ObjectHideFlags: 0
  m_CorrespondingSourceObject: {fileID: 0}
  m_PrefabInstance: {fileID: 0}
  m_PrefabAsset: {fileID: 0}
  m_GameObject: {fileID: 0}
  m_Enabled: 1
  m_EditorHideFlags: 0
  m_Script: {fileID: 11500000, guid: 593ee795373233f43bfbf427233ad20c, type: 3}
  m_Name: 2
  m_EditorClassIdentifier: 
  message: <i>As you get closer, she turns to look at you.</i>
  nextMessages:
  - conditions:
    - {fileID: 11400000, guid: fa645755d20aa0749902d70a97092626, type: 2}
    - {fileID: 11400000, guid: da83844ef13bdcc4bac255b2950e1551, type: 2}
    message: {fileID: 11400000, guid: e31888f2013bd43a0b78182070b1b5e4, type: 2}
  - conditions:
    - {fileID: 11400000, guid: fa645755d20aa0749902d70a97092626, type: 2}
    message: {fileID: 11400000, guid: 128dc0a5fd05904df85c6af338b16bd4, type: 2}
  - conditions:
    - {fileID: 11400000, guid: d324afb32a740a34584657c8f0767de1, type: 2}
    - {fileID: 11400000, guid: 51170716d14271e5c9286400d34520fa, type: 2}
    message: {fileID: 11400000, guid: df5561066c2fe076ba860ebd0e7fa9a6, type: 2}
  - conditions:
    - {fileID: 11400000, guid: d324afb32a740a34584657c8f0767de1, type: 2}
    message: {fileID: 11400000, guid: 6f11d06a1052c2ceabe85dcd7316c173, type: 2}
  choices:
  - conditions: []
    choice: What a beautiful flock of doves!
  - conditions: []
    choice: <i>Feed the birds</i>
  itemsLost: []
  itemsObtained: []
  money: 0
  affinity: 5
