%YAML 1.1
%TAG !u! tag:unity3d.com,2011:
--- !u!114 &11400000
MonoBehaviour:
  m_ObjectHideFlags: 0
  m_CorrespondingSourceObject: {fileID: 0}
  m_PrefabInstance: {fileID: 0}
  m_PrefabAsset: {fileID: 0}
  m_GameObject: {fileID: 0}
  m_Enabled: 1
  m_EditorHideFlags: 0
  m_Script: {fileID: 11500000, guid: 593ee795373233f43bfbf427233ad20c, type: 3}
  m_Name: 9
  m_EditorClassIdentifier: 
  message: Anyone is free to come! You're invited!
  nextMessages:
  - conditions: []
    message: {fileID: 11400000, guid: dc6bde3864db926309da49f0c1409874, type: 2}
  choices: []
  itemsLost: []
  itemsObtained: []
  money: 0
  affinity: 6
