%YAML 1.1
%TAG !u! tag:unity3d.com,2011:
--- !u!114 &11400000
MonoBehaviour:
  m_ObjectHideFlags: 0
  m_CorrespondingSourceObject: {fileID: 0}
  m_PrefabInstance: {fileID: 0}
  m_PrefabAsset: {fileID: 0}
  m_GameObject: {fileID: 0}
  m_Enabled: 1
  m_EditorHideFlags: 0
  m_Script: {fileID: 11500000, guid: 593ee795373233f43bfbf427233ad20c, type: 3}
  m_Name: CP1
  m_EditorClassIdentifier: 
  message: I love feeding birds. I love when they're well-fed! Those are on the menu
    tonight.
  nextMessages:
  - conditions:
    - {fileID: 11400000, guid: fa645755d20aa0749902d70a97092626, type: 2}
    message: {fileID: 11400000, guid: 2b5b205359d35de799f84fd6f6df8020, type: 2}
  - conditions:
    - {fileID: 11400000, guid: d324afb32a740a34584657c8f0767de1, type: 2}
    - {fileID: 11400000, guid: 2471a205733307a4680db738eabd9aca, type: 2}
    message: {fileID: 11400000, guid: cfc0c380a9a3b5389bb90317d5ebf89d, type: 2}
  - conditions:
    - {fileID: 11400000, guid: d324afb32a740a34584657c8f0767de1, type: 2}
    message: {fileID: 11400000, guid: 910efccc53d0b9636a8591f79d5fc1f2, type: 2}
  choices:
  - conditions: []
    choice: Wait, what?
  - conditions: []
    choice: Am I invited?
  itemsLost: []
  itemsObtained: []
  money: 0
  affinity: 0
