%YAML 1.1
%TAG !u! tag:unity3d.com,2011:
--- !u!114 &11400000
MonoBehaviour:
  m_ObjectHideFlags: 0
  m_CorrespondingSourceObject: {fileID: 0}
  m_PrefabInstance: {fileID: 0}
  m_PrefabAsset: {fileID: 0}
  m_GameObject: {fileID: 0}
  m_Enabled: 1
  m_EditorHideFlags: 0
  m_Script: {fileID: 11500000, guid: 593ee795373233f43bfbf427233ad20c, type: 3}
  m_Name: OC1-START
  m_EditorClassIdentifier: 
  message: 'Oh, {protagonist}! What a coincidence!

    Or do you come here everyday?'
  nextMessages:
  - conditions:
    - {fileID: 11400000, guid: fa645755d20aa0749902d70a97092626, type: 2}
    - {fileID: 11400000, guid: a519a6242e4f8d24a8723d4b797a4ff2, type: 2}
    message: {fileID: 11400000, guid: 8d20b1035903b6d408b985b0a03449b3, type: 2}
  - conditions:
    - {fileID: 11400000, guid: fa645755d20aa0749902d70a97092626, type: 2}
    - {fileID: 11400000, guid: ae3dc2927d0209b4e816918faa7def73, type: 2}
    message: {fileID: 11400000, guid: 8d20b1035903b6d408b985b0a03449b3, type: 2}
  - conditions:
    - {fileID: 11400000, guid: fa645755d20aa0749902d70a97092626, type: 2}
    message: {fileID: 11400000, guid: 054a5c14f23ee12448c573a3e74cfd1b, type: 2}
  - conditions:
    - {fileID: 11400000, guid: d324afb32a740a34584657c8f0767de1, type: 2}
    message: {fileID: 11400000, guid: 1fce054b123c36d44945d5fdb109133e, type: 2}
  choices:
  - conditions: []
    choice: I only come when you're there...
  - conditions: []
    choice: I'm actually a regular.
  itemsLost: []
  itemsObtained: []
  money: 0
  affinity: 0
