%YAML 1.1
%TAG !u! tag:unity3d.com,2011:
--- !u!114 &11400000
MonoBehaviour:
  m_ObjectHideFlags: 0
  m_CorrespondingSourceObject: {fileID: 0}
  m_PrefabInstance: {fileID: 0}
  m_PrefabAsset: {fileID: 0}
  m_GameObject: {fileID: 0}
  m_Enabled: 1
  m_EditorHideFlags: 0
  m_Script: {fileID: 11500000, guid: 593ee795373233f43bfbf427233ad20c, type: 3}
  m_Name: 4
  m_EditorClassIdentifier: 
  message: Yeah! And I'm not really sorry for bothering you!
  nextMessages:
  - conditions:
    - {fileID: 11400000, guid: fa645755d20aa0749902d70a97092626, type: 2}
    - {fileID: 11400000, guid: a519a6242e4f8d24a8723d4b797a4ff2, type: 2}
    message: {fileID: 11400000, guid: de630ed3f5f5f674491a7c726132ac59, type: 2}
  - conditions:
    - {fileID: 11400000, guid: fa645755d20aa0749902d70a97092626, type: 2}
    message: {fileID: 11400000, guid: 02e620568a35316419ab35c692ab9502, type: 2}
  - conditions:
    - {fileID: 11400000, guid: d324afb32a740a34584657c8f0767de1, type: 2}
    message: {fileID: 11400000, guid: fe786cec7d091d549843932ed6c72066, type: 2}
  choices:
  - conditions: []
    choice: You should be...
  - conditions: []
    choice: So, maybe I can help you
  itemsLost: []
  itemsObtained: []
  money: 0
  affinity: 3
