%YAML 1.1
%TAG !u! tag:unity3d.com,2011:
--- !u!114 &11400000
MonoBehaviour:
  m_ObjectHideFlags: 0
  m_CorrespondingSourceObject: {fileID: 0}
  m_PrefabInstance: {fileID: 0}
  m_PrefabAsset: {fileID: 0}
  m_GameObject: {fileID: 0}
  m_Enabled: 1
  m_EditorHideFlags: 0
  m_Script: {fileID: 11500000, guid: 593ee795373233f43bfbf427233ad20c, type: 3}
  m_Name: PHG1-START
  m_EditorClassIdentifier: 
  message: '{protagonist}! {protagonist}! Huge problem!'
  nextMessages:
  - conditions:
    - {fileID: 11400000, guid: fa645755d20aa0749902d70a97092626, type: 2}
    message: {fileID: 11400000, guid: 9da967ee55d241242b8feb50c569d67b, type: 2}
  - conditions:
    - {fileID: 11400000, guid: d324afb32a740a34584657c8f0767de1, type: 2}
    message: {fileID: 11400000, guid: 6291ae5a866fc0a439430a773e18d611, type: 2}
  choices:
  - conditions: []
    choice: What's wrong?
  - conditions: []
    choice: '...what is it this time?'
  itemsLost: []
  itemsObtained: []
  money: 0
  affinity: 0
